Differential Expression analysis
…
Read data from excel documents

nanostring_ID_as_rows<-read_excel(path=here("output","nanostring_ID_as_rows.xlsx"))%>%
  mutate(id = to_snake_case(ID))

group<-read_excel(path=here("data","RandomizationKey_pingvin_søløve.xlsx"))%>%dplyr::select(ID,Allocation)%>%
  mutate(treatment=Allocation)
colnames(group)<-to_snake_case(colnames(group))
group$id<-to_snake_case(group$id)

nanostring_ID_as_rows

# A tibble: 112 × 841
   BX_ID      `BXP ID`   `Box number` `Sample number` `Customer Sample ID`
   <chr>      <chr>             <dbl>           <dbl> <chr>               
 1 BX0616_001 BX0616_001            8               1 HC001               
 2 BX0616_002 BX0616_002            1               2 LUP001a             
 3 BX0616_003 BX0616_003            1               3 LUP001b             
 4 BX0616_004 BX0616_004            1               4 LUP002a             
 5 BX0616_005 BX0616_005            1               5 LUP003a             
 6 BX0616_006 BX0616_006            1               6 LUP003b             
 7 BX0616_007 BX0616_007            1               7 LUP004a             
 8 BX0616_008 BX0616_008            1               8 LUP004b             
 9 BX0616_009 BX0616_009            1               9 LUP005a             
10 BX0616_010 BX0616_010            1              10 LUP005b             
# ℹ 102 more rows
# ℹ 836 more variables: `Sample type` <chr>,
#   `Sample concentration (ng/µl)` <chr>, `Additional information` <chr>,
#   `Sample check at BioXpedia (date/Init)` <chr>,
#   `Samples returned /destroyed from BioXpedia (date/Init)` <chr>,
#   `Maltes kommentar:` <chr>, A2M <dbl>, ACE <dbl>, ACIN1 <dbl>, ACP5 <dbl>,
#   ACTR1B <dbl>, ADAM17 <dbl>, ADAR <dbl>, ADCY7 <dbl>, ADORA2A <dbl>, …
…
